# Blender v2.76 (sub 0) OBJ File: ''
# www.blender.org
v 10.000000 -0.100000 -9.999999
v 10.000000 -0.100000 10.000000
v -10.000001 -0.100000 9.999998
v -9.999996 -0.100000 -10.000004
v 10.000005 0.100000 -9.999994
v 9.999993 0.100000 10.000006
v -10.000004 0.100000 9.999996
v -9.999999 0.100000 -10.000000
s off
f 1 2 3
f 8 7 6
f 5 6 2
f 6 7 3
f 7 8 4
f 1 4 8
f 4 1 3
f 5 8 6
f 1 5 2
f 2 6 3
f 3 7 4
f 5 1 8
